/*
WARNING: Do NOT edit the input and output ports in this file in a text
editor if you plan to continue editing the block that represents it in
the Block Editor! File corruption is VERY likely to occur.
*/
/*
Copyright (C) 1991-2009 Altera Corporation
Your use of Altera Corporation's design tools, logic functions 
and other software and tools, and its AMPP partner logic 
functions, and any output files from any of the foregoing 
(including device programming or simulation files), and any 
associated documentation or information are expressly subject 
to the terms and conditions of the Altera Program License 
Subscription Agreement, Altera MegaCore Function License 
Agreement, or other applicable license agreement, including, 
without limitation, that your use is for the sole purpose of 
programming logic devices manufactured by Altera and sold by 
Altera or its authorized distributors.  Please refer to the 
applicable agreement for further details.
*/
//#pragma file_not_in_maxplusii_format
(header "graphic" (version "1.3"))
(pin
	(input)
	(rect 664 296 832 312)
	(text "INPUT" (rect 133 0 161 10)(font "Arial" (font_size 6)))
	(text "The_clock" (rect 5 0 54 12)(font "Arial" ))
	(pt 168 8)
	(drawing
		(line (pt 92 12)(pt 117 12)(line_width 1))
		(line (pt 92 4)(pt 117 4)(line_width 1))
		(line (pt 121 8)(pt 168 8)(line_width 1))
		(line (pt 92 12)(pt 92 4)(line_width 1))
		(line (pt 117 4)(pt 121 8)(line_width 1))
		(line (pt 117 12)(pt 121 8)(line_width 1))
	)
	(text "VCC" (rect 136 7 156 17)(font "Arial" (font_size 6)))
)
(pin
	(input)
	(rect 664 528 832 544)
	(text "INPUT" (rect 133 0 161 10)(font "Arial" (font_size 6)))
	(text "lvds_rx[15..0]" (rect 5 0 73 12)(font "Arial" ))
	(pt 168 8)
	(drawing
		(line (pt 92 12)(pt 117 12)(line_width 1))
		(line (pt 92 4)(pt 117 4)(line_width 1))
		(line (pt 121 8)(pt 168 8)(line_width 1))
		(line (pt 92 12)(pt 92 4)(line_width 1))
		(line (pt 117 4)(pt 121 8)(line_width 1))
		(line (pt 117 12)(pt 121 8)(line_width 1))
	)
	(text "VCC" (rect 136 7 156 17)(font "Arial" (font_size 6)))
)
(pin
	(input)
	(rect 664 440 832 456)
	(text "INPUT" (rect 133 0 161 10)(font "Arial" (font_size 6)))
	(text "enable[15..0]" (rect 5 0 68 12)(font "Arial" ))
	(pt 168 8)
	(drawing
		(line (pt 92 12)(pt 117 12)(line_width 1))
		(line (pt 92 4)(pt 117 4)(line_width 1))
		(line (pt 121 8)(pt 168 8)(line_width 1))
		(line (pt 92 12)(pt 92 4)(line_width 1))
		(line (pt 117 4)(pt 121 8)(line_width 1))
		(line (pt 117 12)(pt 121 8)(line_width 1))
	)
	(text "VCC" (rect 136 7 156 17)(font "Arial" (font_size 6)))
)
(pin
	(input)
	(rect 664 328 832 344)
	(text "INPUT" (rect 133 0 161 10)(font "Arial" (font_size 6)))
	(text "live_rising" (rect 5 0 54 12)(font "Arial" ))
	(pt 168 8)
	(drawing
		(line (pt 92 12)(pt 117 12)(line_width 1))
		(line (pt 92 4)(pt 117 4)(line_width 1))
		(line (pt 121 8)(pt 168 8)(line_width 1))
		(line (pt 92 12)(pt 92 4)(line_width 1))
		(line (pt 117 4)(pt 121 8)(line_width 1))
		(line (pt 117 12)(pt 121 8)(line_width 1))
	)
	(text "VCC" (rect 136 7 156 17)(font "Arial" (font_size 6)))
)
(pin
	(output)
	(rect 2456 336 2641 352)
	(text "OUTPUT" (rect 1 0 39 10)(font "Arial" (font_size 6)))
	(text "error_status[15..0]" (rect 90 0 180 12)(font "Arial" ))
	(pt 0 8)
	(drawing
		(line (pt 0 8)(pt 52 8)(line_width 1))
		(line (pt 52 4)(pt 78 4)(line_width 1))
		(line (pt 52 12)(pt 78 12)(line_width 1))
		(line (pt 52 12)(pt 52 4)(line_width 1))
		(line (pt 78 4)(pt 82 8)(line_width 1))
		(line (pt 82 8)(pt 78 12)(line_width 1))
		(line (pt 78 12)(pt 82 8)(line_width 1))
	)
)
(pin
	(output)
	(rect 2456 432 2640 448)
	(text "OUTPUT" (rect 1 0 39 10)(font "Arial" (font_size 6)))
	(text "stop_status[15..0]" (rect 90 0 179 12)(font "Arial" ))
	(pt 0 8)
	(drawing
		(line (pt 0 8)(pt 52 8)(line_width 1))
		(line (pt 52 4)(pt 78 4)(line_width 1))
		(line (pt 52 12)(pt 78 12)(line_width 1))
		(line (pt 52 12)(pt 52 4)(line_width 1))
		(line (pt 78 4)(pt 82 8)(line_width 1))
		(line (pt 82 8)(pt 78 12)(line_width 1))
		(line (pt 78 12)(pt 82 8)(line_width 1))
	)
)
(pin
	(output)
	(rect 2456 528 2656 544)
	(text "OUTPUT" (rect 1 0 39 10)(font "Arial" (font_size 6)))
	(text "warning_status[15..0]" (rect 90 0 195 12)(font "Arial" ))
	(pt 0 8)
	(drawing
		(line (pt 0 8)(pt 52 8)(line_width 1))
		(line (pt 52 4)(pt 78 4)(line_width 1))
		(line (pt 52 12)(pt 78 12)(line_width 1))
		(line (pt 52 12)(pt 52 4)(line_width 1))
		(line (pt 78 4)(pt 82 8)(line_width 1))
		(line (pt 82 8)(pt 78 12)(line_width 1))
		(line (pt 78 12)(pt 82 8)(line_width 1))
	)
)
(pin
	(output)
	(rect 2472 1104 2648 1120)
	(text "OUTPUT" (rect 1 0 39 10)(font "Arial" (font_size 6)))
	(text "q" (rect 90 0 95 12)(font "Arial" ))
	(pt 0 8)
	(drawing
		(line (pt 0 8)(pt 52 8)(line_width 1))
		(line (pt 52 4)(pt 78 4)(line_width 1))
		(line (pt 52 12)(pt 78 12)(line_width 1))
		(line (pt 52 12)(pt 52 4)(line_width 1))
		(line (pt 78 4)(pt 82 8)(line_width 1))
		(line (pt 82 8)(pt 78 12)(line_width 1))
		(line (pt 78 12)(pt 82 8)(line_width 1))
	)
)
(symbol
	(rect 928 488 1072 568)
	(text "dff16" (rect 59 63 90 79)(font "Arial" (font_size 10)))
	(text "inst" (rect 8 4 25 16)(font "Arial" ))
	(port
		(pt 0 48)
		(input)
		(text "data[15..0]" (rect 0 0 60 14)(font "Arial" (font_size 8)))
		(text "data[15..0]" (rect 20 40 80 54)(font "Arial" (font_size 8)))
		(line (pt 0 48)(pt 16 48)(line_width 3))
	)
	(port
		(pt 0 32)
		(input)
		(text "clock" (rect 0 0 29 14)(font "Arial" (font_size 8)))
		(text "clock" (rect 26 24 55 38)(font "Arial" (font_size 8)))
		(line (pt 0 32)(pt 16 32)(line_width 1))
	)
	(port
		(pt 144 32)
		(output)
		(text "q[15..0]" (rect 0 0 42 14)(font "Arial" (font_size 8)))
		(text "q[15..0]" (rect 89 24 131 38)(font "Arial" (font_size 8)))
		(line (pt 144 32)(pt 128 32)(line_width 3))
	)
	(drawing
		(text "DFF" (rect 109 51 131 63)(font "Arial" ))
		(line (pt 16 64)(pt 128 64)(line_width 1))
		(line (pt 128 64)(pt 128 16)(line_width 1))
		(line (pt 128 16)(pt 16 16)(line_width 1))
		(line (pt 16 16)(pt 16 64)(line_width 1))
		(line (pt 16 38)(pt 22 32)(line_width 1))
		(line (pt 22 32)(pt 16 26)(line_width 1))
	)
	(flipx)
)
(symbol
	(rect 1904 312 2048 392)
	(text "dff16" (rect 59 63 90 79)(font "Arial" (font_size 10)))
	(text "inst17" (rect 8 4 37 16)(font "Arial" ))
	(port
		(pt 0 48)
		(input)
		(text "data[15..0]" (rect 0 0 60 14)(font "Arial" (font_size 8)))
		(text "data[15..0]" (rect 20 40 80 54)(font "Arial" (font_size 8)))
		(line (pt 0 48)(pt 16 48)(line_width 3))
	)
	(port
		(pt 0 32)
		(input)
		(text "clock" (rect 0 0 29 14)(font "Arial" (font_size 8)))
		(text "clock" (rect 26 24 55 38)(font "Arial" (font_size 8)))
		(line (pt 0 32)(pt 16 32)(line_width 1))
	)
	(port
		(pt 144 32)
		(output)
		(text "q[15..0]" (rect 0 0 42 14)(font "Arial" (font_size 8)))
		(text "q[15..0]" (rect 89 24 131 38)(font "Arial" (font_size 8)))
		(line (pt 144 32)(pt 128 32)(line_width 3))
	)
	(drawing
		(text "DFF" (rect 109 51 131 63)(font "Arial" ))
		(line (pt 16 64)(pt 128 64)(line_width 1))
		(line (pt 128 64)(pt 128 16)(line_width 1))
		(line (pt 128 16)(pt 16 16)(line_width 1))
		(line (pt 16 16)(pt 16 64)(line_width 1))
		(line (pt 16 38)(pt 22 32)(line_width 1))
		(line (pt 22 32)(pt 16 26)(line_width 1))
	)
	(flipx)
)
(symbol
	(rect 1904 408 2048 488)
	(text "dff16" (rect 59 63 90 79)(font "Arial" (font_size 10)))
	(text "inst18" (rect 8 4 37 16)(font "Arial" ))
	(port
		(pt 0 48)
		(input)
		(text "data[15..0]" (rect 0 0 60 14)(font "Arial" (font_size 8)))
		(text "data[15..0]" (rect 20 40 80 54)(font "Arial" (font_size 8)))
		(line (pt 0 48)(pt 16 48)(line_width 3))
	)
	(port
		(pt 0 32)
		(input)
		(text "clock" (rect 0 0 29 14)(font "Arial" (font_size 8)))
		(text "clock" (rect 26 24 55 38)(font "Arial" (font_size 8)))
		(line (pt 0 32)(pt 16 32)(line_width 1))
	)
	(port
		(pt 144 32)
		(output)
		(text "q[15..0]" (rect 0 0 42 14)(font "Arial" (font_size 8)))
		(text "q[15..0]" (rect 89 24 131 38)(font "Arial" (font_size 8)))
		(line (pt 144 32)(pt 128 32)(line_width 3))
	)
	(drawing
		(text "DFF" (rect 109 51 131 63)(font "Arial" ))
		(line (pt 16 64)(pt 128 64)(line_width 1))
		(line (pt 128 64)(pt 128 16)(line_width 1))
		(line (pt 128 16)(pt 16 16)(line_width 1))
		(line (pt 16 16)(pt 16 64)(line_width 1))
		(line (pt 16 38)(pt 22 32)(line_width 1))
		(line (pt 22 32)(pt 16 26)(line_width 1))
	)
	(flipx)
)
(symbol
	(rect 1904 504 2048 584)
	(text "dff16" (rect 59 63 90 79)(font "Arial" (font_size 10)))
	(text "inst19" (rect 8 4 37 16)(font "Arial" ))
	(port
		(pt 0 48)
		(input)
		(text "data[15..0]" (rect 0 0 60 14)(font "Arial" (font_size 8)))
		(text "data[15..0]" (rect 20 40 80 54)(font "Arial" (font_size 8)))
		(line (pt 0 48)(pt 16 48)(line_width 3))
	)
	(port
		(pt 0 32)
		(input)
		(text "clock" (rect 0 0 29 14)(font "Arial" (font_size 8)))
		(text "clock" (rect 26 24 55 38)(font "Arial" (font_size 8)))
		(line (pt 0 32)(pt 16 32)(line_width 1))
	)
	(port
		(pt 144 32)
		(output)
		(text "q[15..0]" (rect 0 0 42 14)(font "Arial" (font_size 8)))
		(text "q[15..0]" (rect 89 24 131 38)(font "Arial" (font_size 8)))
		(line (pt 144 32)(pt 128 32)(line_width 3))
	)
	(drawing
		(text "DFF" (rect 109 51 131 63)(font "Arial" ))
		(line (pt 16 64)(pt 128 64)(line_width 1))
		(line (pt 128 64)(pt 128 16)(line_width 1))
		(line (pt 128 16)(pt 16 16)(line_width 1))
		(line (pt 16 16)(pt 16 64)(line_width 1))
		(line (pt 16 38)(pt 22 32)(line_width 1))
		(line (pt 22 32)(pt 16 26)(line_width 1))
	)
	(flipx)
)
(symbol
	(rect 1336 328 1496 456)
	(text "error_judgement" (rect 5 0 98 14)(font "Arial" (font_size 8)))
	(text "inst1" (rect 8 112 31 124)(font "Arial" ))
	(port
		(pt 0 32)
		(input)
		(text "The_clock" (rect 0 0 57 14)(font "Arial" (font_size 8)))
		(text "The_clock" (rect 21 27 78 41)(font "Arial" (font_size 8)))
		(line (pt 0 32)(pt 16 32)(line_width 1))
	)
	(port
		(pt 0 48)
		(input)
		(text "lvds_in" (rect 0 0 40 14)(font "Arial" (font_size 8)))
		(text "lvds_in" (rect 21 43 61 57)(font "Arial" (font_size 8)))
		(line (pt 0 48)(pt 16 48)(line_width 1))
	)
	(port
		(pt 0 64)
		(input)
		(text "enable" (rect 0 0 37 14)(font "Arial" (font_size 8)))
		(text "enable" (rect 21 59 58 73)(font "Arial" (font_size 8)))
		(line (pt 0 64)(pt 16 64)(line_width 1))
	)
	(port
		(pt 0 80)
		(input)
		(text "live_rising" (rect 0 0 56 14)(font "Arial" (font_size 8)))
		(text "live_rising" (rect 21 75 77 89)(font "Arial" (font_size 8)))
		(line (pt 0 80)(pt 16 80)(line_width 1))
	)
	(port
		(pt 160 32)
		(output)
		(text "error" (rect 0 0 28 14)(font "Arial" (font_size 8)))
		(text "error" (rect 111 27 139 41)(font "Arial" (font_size 8)))
		(line (pt 160 32)(pt 144 32)(line_width 1))
	)
	(port
		(pt 160 48)
		(output)
		(text "stop" (rect 0 0 24 14)(font "Arial" (font_size 8)))
		(text "stop" (rect 115 43 139 57)(font "Arial" (font_size 8)))
		(line (pt 160 48)(pt 144 48)(line_width 1))
	)
	(port
		(pt 160 64)
		(output)
		(text "warning" (rect 0 0 47 14)(font "Arial" (font_size 8)))
		(text "warning" (rect 92 59 139 73)(font "Arial" (font_size 8)))
		(line (pt 160 64)(pt 144 64)(line_width 1))
	)
	(drawing
		(rectangle (rect 16 16 144 112)(line_width 1))
	)
)
(symbol
	(rect 1336 472 1496 600)
	(text "error_judgement" (rect 5 0 98 14)(font "Arial" (font_size 8)))
	(text "inst2" (rect 8 112 31 124)(font "Arial" ))
	(port
		(pt 0 32)
		(input)
		(text "The_clock" (rect 0 0 57 14)(font "Arial" (font_size 8)))
		(text "The_clock" (rect 21 27 78 41)(font "Arial" (font_size 8)))
		(line (pt 0 32)(pt 16 32)(line_width 1))
	)
	(port
		(pt 0 48)
		(input)
		(text "lvds_in" (rect 0 0 40 14)(font "Arial" (font_size 8)))
		(text "lvds_in" (rect 21 43 61 57)(font "Arial" (font_size 8)))
		(line (pt 0 48)(pt 16 48)(line_width 1))
	)
	(port
		(pt 0 64)
		(input)
		(text "enable" (rect 0 0 37 14)(font "Arial" (font_size 8)))
		(text "enable" (rect 21 59 58 73)(font "Arial" (font_size 8)))
		(line (pt 0 64)(pt 16 64)(line_width 1))
	)
	(port
		(pt 0 80)
		(input)
		(text "live_rising" (rect 0 0 56 14)(font "Arial" (font_size 8)))
		(text "live_rising" (rect 21 75 77 89)(font "Arial" (font_size 8)))
		(line (pt 0 80)(pt 16 80)(line_width 1))
	)
	(port
		(pt 160 32)
		(output)
		(text "error" (rect 0 0 28 14)(font "Arial" (font_size 8)))
		(text "error" (rect 111 27 139 41)(font "Arial" (font_size 8)))
		(line (pt 160 32)(pt 144 32)(line_width 1))
	)
	(port
		(pt 160 48)
		(output)
		(text "stop" (rect 0 0 24 14)(font "Arial" (font_size 8)))
		(text "stop" (rect 115 43 139 57)(font "Arial" (font_size 8)))
		(line (pt 160 48)(pt 144 48)(line_width 1))
	)
	(port
		(pt 160 64)
		(output)
		(text "warning" (rect 0 0 47 14)(font "Arial" (font_size 8)))
		(text "warning" (rect 92 59 139 73)(font "Arial" (font_size 8)))
		(line (pt 160 64)(pt 144 64)(line_width 1))
	)
	(drawing
		(rectangle (rect 16 16 144 112)(line_width 1))
	)
)
(symbol
	(rect 1336 616 1496 744)
	(text "error_judgement" (rect 5 0 98 14)(font "Arial" (font_size 8)))
	(text "inst3" (rect 8 112 31 124)(font "Arial" ))
	(port
		(pt 0 32)
		(input)
		(text "The_clock" (rect 0 0 57 14)(font "Arial" (font_size 8)))
		(text "The_clock" (rect 21 27 78 41)(font "Arial" (font_size 8)))
		(line (pt 0 32)(pt 16 32)(line_width 1))
	)
	(port
		(pt 0 48)
		(input)
		(text "lvds_in" (rect 0 0 40 14)(font "Arial" (font_size 8)))
		(text "lvds_in" (rect 21 43 61 57)(font "Arial" (font_size 8)))
		(line (pt 0 48)(pt 16 48)(line_width 1))
	)
	(port
		(pt 0 64)
		(input)
		(text "enable" (rect 0 0 37 14)(font "Arial" (font_size 8)))
		(text "enable" (rect 21 59 58 73)(font "Arial" (font_size 8)))
		(line (pt 0 64)(pt 16 64)(line_width 1))
	)
	(port
		(pt 0 80)
		(input)
		(text "live_rising" (rect 0 0 56 14)(font "Arial" (font_size 8)))
		(text "live_rising" (rect 21 75 77 89)(font "Arial" (font_size 8)))
		(line (pt 0 80)(pt 16 80)(line_width 1))
	)
	(port
		(pt 160 32)
		(output)
		(text "error" (rect 0 0 28 14)(font "Arial" (font_size 8)))
		(text "error" (rect 111 27 139 41)(font "Arial" (font_size 8)))
		(line (pt 160 32)(pt 144 32)(line_width 1))
	)
	(port
		(pt 160 48)
		(output)
		(text "stop" (rect 0 0 24 14)(font "Arial" (font_size 8)))
		(text "stop" (rect 115 43 139 57)(font "Arial" (font_size 8)))
		(line (pt 160 48)(pt 144 48)(line_width 1))
	)
	(port
		(pt 160 64)
		(output)
		(text "warning" (rect 0 0 47 14)(font "Arial" (font_size 8)))
		(text "warning" (rect 92 59 139 73)(font "Arial" (font_size 8)))
		(line (pt 160 64)(pt 144 64)(line_width 1))
	)
	(drawing
		(rectangle (rect 16 16 144 112)(line_width 1))
	)
)
(symbol
	(rect 1336 760 1496 888)
	(text "error_judgement" (rect 5 0 98 14)(font "Arial" (font_size 8)))
	(text "inst4" (rect 8 112 31 124)(font "Arial" ))
	(port
		(pt 0 32)
		(input)
		(text "The_clock" (rect 0 0 57 14)(font "Arial" (font_size 8)))
		(text "The_clock" (rect 21 27 78 41)(font "Arial" (font_size 8)))
		(line (pt 0 32)(pt 16 32)(line_width 1))
	)
	(port
		(pt 0 48)
		(input)
		(text "lvds_in" (rect 0 0 40 14)(font "Arial" (font_size 8)))
		(text "lvds_in" (rect 21 43 61 57)(font "Arial" (font_size 8)))
		(line (pt 0 48)(pt 16 48)(line_width 1))
	)
	(port
		(pt 0 64)
		(input)
		(text "enable" (rect 0 0 37 14)(font "Arial" (font_size 8)))
		(text "enable" (rect 21 59 58 73)(font "Arial" (font_size 8)))
		(line (pt 0 64)(pt 16 64)(line_width 1))
	)
	(port
		(pt 0 80)
		(input)
		(text "live_rising" (rect 0 0 56 14)(font "Arial" (font_size 8)))
		(text "live_rising" (rect 21 75 77 89)(font "Arial" (font_size 8)))
		(line (pt 0 80)(pt 16 80)(line_width 1))
	)
	(port
		(pt 160 32)
		(output)
		(text "error" (rect 0 0 28 14)(font "Arial" (font_size 8)))
		(text "error" (rect 111 27 139 41)(font "Arial" (font_size 8)))
		(line (pt 160 32)(pt 144 32)(line_width 1))
	)
	(port
		(pt 160 48)
		(output)
		(text "stop" (rect 0 0 24 14)(font "Arial" (font_size 8)))
		(text "stop" (rect 115 43 139 57)(font "Arial" (font_size 8)))
		(line (pt 160 48)(pt 144 48)(line_width 1))
	)
	(port
		(pt 160 64)
		(output)
		(text "warning" (rect 0 0 47 14)(font "Arial" (font_size 8)))
		(text "warning" (rect 92 59 139 73)(font "Arial" (font_size 8)))
		(line (pt 160 64)(pt 144 64)(line_width 1))
	)
	(drawing
		(rectangle (rect 16 16 144 112)(line_width 1))
	)
)
(symbol
	(rect 1336 904 1496 1032)
	(text "error_judgement" (rect 5 0 98 14)(font "Arial" (font_size 8)))
	(text "inst5" (rect 8 112 31 124)(font "Arial" ))
	(port
		(pt 0 32)
		(input)
		(text "The_clock" (rect 0 0 57 14)(font "Arial" (font_size 8)))
		(text "The_clock" (rect 21 27 78 41)(font "Arial" (font_size 8)))
		(line (pt 0 32)(pt 16 32)(line_width 1))
	)
	(port
		(pt 0 48)
		(input)
		(text "lvds_in" (rect 0 0 40 14)(font "Arial" (font_size 8)))
		(text "lvds_in" (rect 21 43 61 57)(font "Arial" (font_size 8)))
		(line (pt 0 48)(pt 16 48)(line_width 1))
	)
	(port
		(pt 0 64)
		(input)
		(text "enable" (rect 0 0 37 14)(font "Arial" (font_size 8)))
		(text "enable" (rect 21 59 58 73)(font "Arial" (font_size 8)))
		(line (pt 0 64)(pt 16 64)(line_width 1))
	)
	(port
		(pt 0 80)
		(input)
		(text "live_rising" (rect 0 0 56 14)(font "Arial" (font_size 8)))
		(text "live_rising" (rect 21 75 77 89)(font "Arial" (font_size 8)))
		(line (pt 0 80)(pt 16 80)(line_width 1))
	)
	(port
		(pt 160 32)
		(output)
		(text "error" (rect 0 0 28 14)(font "Arial" (font_size 8)))
		(text "error" (rect 111 27 139 41)(font "Arial" (font_size 8)))
		(line (pt 160 32)(pt 144 32)(line_width 1))
	)
	(port
		(pt 160 48)
		(output)
		(text "stop" (rect 0 0 24 14)(font "Arial" (font_size 8)))
		(text "stop" (rect 115 43 139 57)(font "Arial" (font_size 8)))
		(line (pt 160 48)(pt 144 48)(line_width 1))
	)
	(port
		(pt 160 64)
		(output)
		(text "warning" (rect 0 0 47 14)(font "Arial" (font_size 8)))
		(text "warning" (rect 92 59 139 73)(font "Arial" (font_size 8)))
		(line (pt 160 64)(pt 144 64)(line_width 1))
	)
	(drawing
		(rectangle (rect 16 16 144 112)(line_width 1))
	)
)
(symbol
	(rect 1336 1048 1496 1176)
	(text "error_judgement" (rect 5 0 98 14)(font "Arial" (font_size 8)))
	(text "inst6" (rect 8 112 31 124)(font "Arial" ))
	(port
		(pt 0 32)
		(input)
		(text "The_clock" (rect 0 0 57 14)(font "Arial" (font_size 8)))
		(text "The_clock" (rect 21 27 78 41)(font "Arial" (font_size 8)))
		(line (pt 0 32)(pt 16 32)(line_width 1))
	)
	(port
		(pt 0 48)
		(input)
		(text "lvds_in" (rect 0 0 40 14)(font "Arial" (font_size 8)))
		(text "lvds_in" (rect 21 43 61 57)(font "Arial" (font_size 8)))
		(line (pt 0 48)(pt 16 48)(line_width 1))
	)
	(port
		(pt 0 64)
		(input)
		(text "enable" (rect 0 0 37 14)(font "Arial" (font_size 8)))
		(text "enable" (rect 21 59 58 73)(font "Arial" (font_size 8)))
		(line (pt 0 64)(pt 16 64)(line_width 1))
	)
	(port
		(pt 0 80)
		(input)
		(text "live_rising" (rect 0 0 56 14)(font "Arial" (font_size 8)))
		(text "live_rising" (rect 21 75 77 89)(font "Arial" (font_size 8)))
		(line (pt 0 80)(pt 16 80)(line_width 1))
	)
	(port
		(pt 160 32)
		(output)
		(text "error" (rect 0 0 28 14)(font "Arial" (font_size 8)))
		(text "error" (rect 111 27 139 41)(font "Arial" (font_size 8)))
		(line (pt 160 32)(pt 144 32)(line_width 1))
	)
	(port
		(pt 160 48)
		(output)
		(text "stop" (rect 0 0 24 14)(font "Arial" (font_size 8)))
		(text "stop" (rect 115 43 139 57)(font "Arial" (font_size 8)))
		(line (pt 160 48)(pt 144 48)(line_width 1))
	)
	(port
		(pt 160 64)
		(output)
		(text "warning" (rect 0 0 47 14)(font "Arial" (font_size 8)))
		(text "warning" (rect 92 59 139 73)(font "Arial" (font_size 8)))
		(line (pt 160 64)(pt 144 64)(line_width 1))
	)
	(drawing
		(rectangle (rect 16 16 144 112)(line_width 1))
	)
)
(symbol
	(rect 1336 1192 1496 1320)
	(text "error_judgement" (rect 5 0 98 14)(font "Arial" (font_size 8)))
	(text "inst7" (rect 8 112 31 124)(font "Arial" ))
	(port
		(pt 0 32)
		(input)
		(text "The_clock" (rect 0 0 57 14)(font "Arial" (font_size 8)))
		(text "The_clock" (rect 21 27 78 41)(font "Arial" (font_size 8)))
		(line (pt 0 32)(pt 16 32)(line_width 1))
	)
	(port
		(pt 0 48)
		(input)
		(text "lvds_in" (rect 0 0 40 14)(font "Arial" (font_size 8)))
		(text "lvds_in" (rect 21 43 61 57)(font "Arial" (font_size 8)))
		(line (pt 0 48)(pt 16 48)(line_width 1))
	)
	(port
		(pt 0 64)
		(input)
		(text "enable" (rect 0 0 37 14)(font "Arial" (font_size 8)))
		(text "enable" (rect 21 59 58 73)(font "Arial" (font_size 8)))
		(line (pt 0 64)(pt 16 64)(line_width 1))
	)
	(port
		(pt 0 80)
		(input)
		(text "live_rising" (rect 0 0 56 14)(font "Arial" (font_size 8)))
		(text "live_rising" (rect 21 75 77 89)(font "Arial" (font_size 8)))
		(line (pt 0 80)(pt 16 80)(line_width 1))
	)
	(port
		(pt 160 32)
		(output)
		(text "error" (rect 0 0 28 14)(font "Arial" (font_size 8)))
		(text "error" (rect 111 27 139 41)(font "Arial" (font_size 8)))
		(line (pt 160 32)(pt 144 32)(line_width 1))
	)
	(port
		(pt 160 48)
		(output)
		(text "stop" (rect 0 0 24 14)(font "Arial" (font_size 8)))
		(text "stop" (rect 115 43 139 57)(font "Arial" (font_size 8)))
		(line (pt 160 48)(pt 144 48)(line_width 1))
	)
	(port
		(pt 160 64)
		(output)
		(text "warning" (rect 0 0 47 14)(font "Arial" (font_size 8)))
		(text "warning" (rect 92 59 139 73)(font "Arial" (font_size 8)))
		(line (pt 160 64)(pt 144 64)(line_width 1))
	)
	(drawing
		(rectangle (rect 16 16 144 112)(line_width 1))
	)
)
(symbol
	(rect 1336 1336 1496 1464)
	(text "error_judgement" (rect 5 0 98 14)(font "Arial" (font_size 8)))
	(text "inst8" (rect 8 112 31 124)(font "Arial" ))
	(port
		(pt 0 32)
		(input)
		(text "The_clock" (rect 0 0 57 14)(font "Arial" (font_size 8)))
		(text "The_clock" (rect 21 27 78 41)(font "Arial" (font_size 8)))
		(line (pt 0 32)(pt 16 32)(line_width 1))
	)
	(port
		(pt 0 48)
		(input)
		(text "lvds_in" (rect 0 0 40 14)(font "Arial" (font_size 8)))
		(text "lvds_in" (rect 21 43 61 57)(font "Arial" (font_size 8)))
		(line (pt 0 48)(pt 16 48)(line_width 1))
	)
	(port
		(pt 0 64)
		(input)
		(text "enable" (rect 0 0 37 14)(font "Arial" (font_size 8)))
		(text "enable" (rect 21 59 58 73)(font "Arial" (font_size 8)))
		(line (pt 0 64)(pt 16 64)(line_width 1))
	)
	(port
		(pt 0 80)
		(input)
		(text "live_rising" (rect 0 0 56 14)(font "Arial" (font_size 8)))
		(text "live_rising" (rect 21 75 77 89)(font "Arial" (font_size 8)))
		(line (pt 0 80)(pt 16 80)(line_width 1))
	)
	(port
		(pt 160 32)
		(output)
		(text "error" (rect 0 0 28 14)(font "Arial" (font_size 8)))
		(text "error" (rect 111 27 139 41)(font "Arial" (font_size 8)))
		(line (pt 160 32)(pt 144 32)(line_width 1))
	)
	(port
		(pt 160 48)
		(output)
		(text "stop" (rect 0 0 24 14)(font "Arial" (font_size 8)))
		(text "stop" (rect 115 43 139 57)(font "Arial" (font_size 8)))
		(line (pt 160 48)(pt 144 48)(line_width 1))
	)
	(port
		(pt 160 64)
		(output)
		(text "warning" (rect 0 0 47 14)(font "Arial" (font_size 8)))
		(text "warning" (rect 92 59 139 73)(font "Arial" (font_size 8)))
		(line (pt 160 64)(pt 144 64)(line_width 1))
	)
	(drawing
		(rectangle (rect 16 16 144 112)(line_width 1))
	)
)
(symbol
	(rect 1336 1480 1496 1608)
	(text "error_judgement" (rect 5 0 98 14)(font "Arial" (font_size 8)))
	(text "inst9" (rect 8 112 31 124)(font "Arial" ))
	(port
		(pt 0 32)
		(input)
		(text "The_clock" (rect 0 0 57 14)(font "Arial" (font_size 8)))
		(text "The_clock" (rect 21 27 78 41)(font "Arial" (font_size 8)))
		(line (pt 0 32)(pt 16 32)(line_width 1))
	)
	(port
		(pt 0 48)
		(input)
		(text "lvds_in" (rect 0 0 40 14)(font "Arial" (font_size 8)))
		(text "lvds_in" (rect 21 43 61 57)(font "Arial" (font_size 8)))
		(line (pt 0 48)(pt 16 48)(line_width 1))
	)
	(port
		(pt 0 64)
		(input)
		(text "enable" (rect 0 0 37 14)(font "Arial" (font_size 8)))
		(text "enable" (rect 21 59 58 73)(font "Arial" (font_size 8)))
		(line (pt 0 64)(pt 16 64)(line_width 1))
	)
	(port
		(pt 0 80)
		(input)
		(text "live_rising" (rect 0 0 56 14)(font "Arial" (font_size 8)))
		(text "live_rising" (rect 21 75 77 89)(font "Arial" (font_size 8)))
		(line (pt 0 80)(pt 16 80)(line_width 1))
	)
	(port
		(pt 160 32)
		(output)
		(text "error" (rect 0 0 28 14)(font "Arial" (font_size 8)))
		(text "error" (rect 111 27 139 41)(font "Arial" (font_size 8)))
		(line (pt 160 32)(pt 144 32)(line_width 1))
	)
	(port
		(pt 160 48)
		(output)
		(text "stop" (rect 0 0 24 14)(font "Arial" (font_size 8)))
		(text "stop" (rect 115 43 139 57)(font "Arial" (font_size 8)))
		(line (pt 160 48)(pt 144 48)(line_width 1))
	)
	(port
		(pt 160 64)
		(output)
		(text "warning" (rect 0 0 47 14)(font "Arial" (font_size 8)))
		(text "warning" (rect 92 59 139 73)(font "Arial" (font_size 8)))
		(line (pt 160 64)(pt 144 64)(line_width 1))
	)
	(drawing
		(rectangle (rect 16 16 144 112)(line_width 1))
	)
)
(symbol
	(rect 1336 1624 1496 1752)
	(text "error_judgement" (rect 5 0 98 14)(font "Arial" (font_size 8)))
	(text "inst10" (rect 8 112 37 124)(font "Arial" ))
	(port
		(pt 0 32)
		(input)
		(text "The_clock" (rect 0 0 57 14)(font "Arial" (font_size 8)))
		(text "The_clock" (rect 21 27 78 41)(font "Arial" (font_size 8)))
		(line (pt 0 32)(pt 16 32)(line_width 1))
	)
	(port
		(pt 0 48)
		(input)
		(text "lvds_in" (rect 0 0 40 14)(font "Arial" (font_size 8)))
		(text "lvds_in" (rect 21 43 61 57)(font "Arial" (font_size 8)))
		(line (pt 0 48)(pt 16 48)(line_width 1))
	)
	(port
		(pt 0 64)
		(input)
		(text "enable" (rect 0 0 37 14)(font "Arial" (font_size 8)))
		(text "enable" (rect 21 59 58 73)(font "Arial" (font_size 8)))
		(line (pt 0 64)(pt 16 64)(line_width 1))
	)
	(port
		(pt 0 80)
		(input)
		(text "live_rising" (rect 0 0 56 14)(font "Arial" (font_size 8)))
		(text "live_rising" (rect 21 75 77 89)(font "Arial" (font_size 8)))
		(line (pt 0 80)(pt 16 80)(line_width 1))
	)
	(port
		(pt 160 32)
		(output)
		(text "error" (rect 0 0 28 14)(font "Arial" (font_size 8)))
		(text "error" (rect 111 27 139 41)(font "Arial" (font_size 8)))
		(line (pt 160 32)(pt 144 32)(line_width 1))
	)
	(port
		(pt 160 48)
		(output)
		(text "stop" (rect 0 0 24 14)(font "Arial" (font_size 8)))
		(text "stop" (rect 115 43 139 57)(font "Arial" (font_size 8)))
		(line (pt 160 48)(pt 144 48)(line_width 1))
	)
	(port
		(pt 160 64)
		(output)
		(text "warning" (rect 0 0 47 14)(font "Arial" (font_size 8)))
		(text "warning" (rect 92 59 139 73)(font "Arial" (font_size 8)))
		(line (pt 160 64)(pt 144 64)(line_width 1))
	)
	(drawing
		(rectangle (rect 16 16 144 112)(line_width 1))
	)
)
(symbol
	(rect 1336 1768 1496 1896)
	(text "error_judgement" (rect 5 0 98 14)(font "Arial" (font_size 8)))
	(text "inst11" (rect 8 112 37 124)(font "Arial" ))
	(port
		(pt 0 32)
		(input)
		(text "The_clock" (rect 0 0 57 14)(font "Arial" (font_size 8)))
		(text "The_clock" (rect 21 27 78 41)(font "Arial" (font_size 8)))
		(line (pt 0 32)(pt 16 32)(line_width 1))
	)
	(port
		(pt 0 48)
		(input)
		(text "lvds_in" (rect 0 0 40 14)(font "Arial" (font_size 8)))
		(text "lvds_in" (rect 21 43 61 57)(font "Arial" (font_size 8)))
		(line (pt 0 48)(pt 16 48)(line_width 1))
	)
	(port
		(pt 0 64)
		(input)
		(text "enable" (rect 0 0 37 14)(font "Arial" (font_size 8)))
		(text "enable" (rect 21 59 58 73)(font "Arial" (font_size 8)))
		(line (pt 0 64)(pt 16 64)(line_width 1))
	)
	(port
		(pt 0 80)
		(input)
		(text "live_rising" (rect 0 0 56 14)(font "Arial" (font_size 8)))
		(text "live_rising" (rect 21 75 77 89)(font "Arial" (font_size 8)))
		(line (pt 0 80)(pt 16 80)(line_width 1))
	)
	(port
		(pt 160 32)
		(output)
		(text "error" (rect 0 0 28 14)(font "Arial" (font_size 8)))
		(text "error" (rect 111 27 139 41)(font "Arial" (font_size 8)))
		(line (pt 160 32)(pt 144 32)(line_width 1))
	)
	(port
		(pt 160 48)
		(output)
		(text "stop" (rect 0 0 24 14)(font "Arial" (font_size 8)))
		(text "stop" (rect 115 43 139 57)(font "Arial" (font_size 8)))
		(line (pt 160 48)(pt 144 48)(line_width 1))
	)
	(port
		(pt 160 64)
		(output)
		(text "warning" (rect 0 0 47 14)(font "Arial" (font_size 8)))
		(text "warning" (rect 92 59 139 73)(font "Arial" (font_size 8)))
		(line (pt 160 64)(pt 144 64)(line_width 1))
	)
	(drawing
		(rectangle (rect 16 16 144 112)(line_width 1))
	)
)
(symbol
	(rect 1336 1912 1496 2040)
	(text "error_judgement" (rect 5 0 98 14)(font "Arial" (font_size 8)))
	(text "inst12" (rect 8 112 37 124)(font "Arial" ))
	(port
		(pt 0 32)
		(input)
		(text "The_clock" (rect 0 0 57 14)(font "Arial" (font_size 8)))
		(text "The_clock" (rect 21 27 78 41)(font "Arial" (font_size 8)))
		(line (pt 0 32)(pt 16 32)(line_width 1))
	)
	(port
		(pt 0 48)
		(input)
		(text "lvds_in" (rect 0 0 40 14)(font "Arial" (font_size 8)))
		(text "lvds_in" (rect 21 43 61 57)(font "Arial" (font_size 8)))
		(line (pt 0 48)(pt 16 48)(line_width 1))
	)
	(port
		(pt 0 64)
		(input)
		(text "enable" (rect 0 0 37 14)(font "Arial" (font_size 8)))
		(text "enable" (rect 21 59 58 73)(font "Arial" (font_size 8)))
		(line (pt 0 64)(pt 16 64)(line_width 1))
	)
	(port
		(pt 0 80)
		(input)
		(text "live_rising" (rect 0 0 56 14)(font "Arial" (font_size 8)))
		(text "live_rising" (rect 21 75 77 89)(font "Arial" (font_size 8)))
		(line (pt 0 80)(pt 16 80)(line_width 1))
	)
	(port
		(pt 160 32)
		(output)
		(text "error" (rect 0 0 28 14)(font "Arial" (font_size 8)))
		(text "error" (rect 111 27 139 41)(font "Arial" (font_size 8)))
		(line (pt 160 32)(pt 144 32)(line_width 1))
	)
	(port
		(pt 160 48)
		(output)
		(text "stop" (rect 0 0 24 14)(font "Arial" (font_size 8)))
		(text "stop" (rect 115 43 139 57)(font "Arial" (font_size 8)))
		(line (pt 160 48)(pt 144 48)(line_width 1))
	)
	(port
		(pt 160 64)
		(output)
		(text "warning" (rect 0 0 47 14)(font "Arial" (font_size 8)))
		(text "warning" (rect 92 59 139 73)(font "Arial" (font_size 8)))
		(line (pt 160 64)(pt 144 64)(line_width 1))
	)
	(drawing
		(rectangle (rect 16 16 144 112)(line_width 1))
	)
)
(symbol
	(rect 1336 2056 1496 2184)
	(text "error_judgement" (rect 5 0 98 14)(font "Arial" (font_size 8)))
	(text "inst13" (rect 8 112 37 124)(font "Arial" ))
	(port
		(pt 0 32)
		(input)
		(text "The_clock" (rect 0 0 57 14)(font "Arial" (font_size 8)))
		(text "The_clock" (rect 21 27 78 41)(font "Arial" (font_size 8)))
		(line (pt 0 32)(pt 16 32)(line_width 1))
	)
	(port
		(pt 0 48)
		(input)
		(text "lvds_in" (rect 0 0 40 14)(font "Arial" (font_size 8)))
		(text "lvds_in" (rect 21 43 61 57)(font "Arial" (font_size 8)))
		(line (pt 0 48)(pt 16 48)(line_width 1))
	)
	(port
		(pt 0 64)
		(input)
		(text "enable" (rect 0 0 37 14)(font "Arial" (font_size 8)))
		(text "enable" (rect 21 59 58 73)(font "Arial" (font_size 8)))
		(line (pt 0 64)(pt 16 64)(line_width 1))
	)
	(port
		(pt 0 80)
		(input)
		(text "live_rising" (rect 0 0 56 14)(font "Arial" (font_size 8)))
		(text "live_rising" (rect 21 75 77 89)(font "Arial" (font_size 8)))
		(line (pt 0 80)(pt 16 80)(line_width 1))
	)
	(port
		(pt 160 32)
		(output)
		(text "error" (rect 0 0 28 14)(font "Arial" (font_size 8)))
		(text "error" (rect 111 27 139 41)(font "Arial" (font_size 8)))
		(line (pt 160 32)(pt 144 32)(line_width 1))
	)
	(port
		(pt 160 48)
		(output)
		(text "stop" (rect 0 0 24 14)(font "Arial" (font_size 8)))
		(text "stop" (rect 115 43 139 57)(font "Arial" (font_size 8)))
		(line (pt 160 48)(pt 144 48)(line_width 1))
	)
	(port
		(pt 160 64)
		(output)
		(text "warning" (rect 0 0 47 14)(font "Arial" (font_size 8)))
		(text "warning" (rect 92 59 139 73)(font "Arial" (font_size 8)))
		(line (pt 160 64)(pt 144 64)(line_width 1))
	)
	(drawing
		(rectangle (rect 16 16 144 112)(line_width 1))
	)
)
(symbol
	(rect 1336 2200 1496 2328)
	(text "error_judgement" (rect 5 0 98 14)(font "Arial" (font_size 8)))
	(text "inst14" (rect 8 112 37 124)(font "Arial" ))
	(port
		(pt 0 32)
		(input)
		(text "The_clock" (rect 0 0 57 14)(font "Arial" (font_size 8)))
		(text "The_clock" (rect 21 27 78 41)(font "Arial" (font_size 8)))
		(line (pt 0 32)(pt 16 32)(line_width 1))
	)
	(port
		(pt 0 48)
		(input)
		(text "lvds_in" (rect 0 0 40 14)(font "Arial" (font_size 8)))
		(text "lvds_in" (rect 21 43 61 57)(font "Arial" (font_size 8)))
		(line (pt 0 48)(pt 16 48)(line_width 1))
	)
	(port
		(pt 0 64)
		(input)
		(text "enable" (rect 0 0 37 14)(font "Arial" (font_size 8)))
		(text "enable" (rect 21 59 58 73)(font "Arial" (font_size 8)))
		(line (pt 0 64)(pt 16 64)(line_width 1))
	)
	(port
		(pt 0 80)
		(input)
		(text "live_rising" (rect 0 0 56 14)(font "Arial" (font_size 8)))
		(text "live_rising" (rect 21 75 77 89)(font "Arial" (font_size 8)))
		(line (pt 0 80)(pt 16 80)(line_width 1))
	)
	(port
		(pt 160 32)
		(output)
		(text "error" (rect 0 0 28 14)(font "Arial" (font_size 8)))
		(text "error" (rect 111 27 139 41)(font "Arial" (font_size 8)))
		(line (pt 160 32)(pt 144 32)(line_width 1))
	)
	(port
		(pt 160 48)
		(output)
		(text "stop" (rect 0 0 24 14)(font "Arial" (font_size 8)))
		(text "stop" (rect 115 43 139 57)(font "Arial" (font_size 8)))
		(line (pt 160 48)(pt 144 48)(line_width 1))
	)
	(port
		(pt 160 64)
		(output)
		(text "warning" (rect 0 0 47 14)(font "Arial" (font_size 8)))
		(text "warning" (rect 92 59 139 73)(font "Arial" (font_size 8)))
		(line (pt 160 64)(pt 144 64)(line_width 1))
	)
	(drawing
		(rectangle (rect 16 16 144 112)(line_width 1))
	)
)
(symbol
	(rect 1336 2344 1496 2472)
	(text "error_judgement" (rect 5 0 98 14)(font "Arial" (font_size 8)))
	(text "inst15" (rect 8 112 37 124)(font "Arial" ))
	(port
		(pt 0 32)
		(input)
		(text "The_clock" (rect 0 0 57 14)(font "Arial" (font_size 8)))
		(text "The_clock" (rect 21 27 78 41)(font "Arial" (font_size 8)))
		(line (pt 0 32)(pt 16 32)(line_width 1))
	)
	(port
		(pt 0 48)
		(input)
		(text "lvds_in" (rect 0 0 40 14)(font "Arial" (font_size 8)))
		(text "lvds_in" (rect 21 43 61 57)(font "Arial" (font_size 8)))
		(line (pt 0 48)(pt 16 48)(line_width 1))
	)
	(port
		(pt 0 64)
		(input)
		(text "enable" (rect 0 0 37 14)(font "Arial" (font_size 8)))
		(text "enable" (rect 21 59 58 73)(font "Arial" (font_size 8)))
		(line (pt 0 64)(pt 16 64)(line_width 1))
	)
	(port
		(pt 0 80)
		(input)
		(text "live_rising" (rect 0 0 56 14)(font "Arial" (font_size 8)))
		(text "live_rising" (rect 21 75 77 89)(font "Arial" (font_size 8)))
		(line (pt 0 80)(pt 16 80)(line_width 1))
	)
	(port
		(pt 160 32)
		(output)
		(text "error" (rect 0 0 28 14)(font "Arial" (font_size 8)))
		(text "error" (rect 111 27 139 41)(font "Arial" (font_size 8)))
		(line (pt 160 32)(pt 144 32)(line_width 1))
	)
	(port
		(pt 160 48)
		(output)
		(text "stop" (rect 0 0 24 14)(font "Arial" (font_size 8)))
		(text "stop" (rect 115 43 139 57)(font "Arial" (font_size 8)))
		(line (pt 160 48)(pt 144 48)(line_width 1))
	)
	(port
		(pt 160 64)
		(output)
		(text "warning" (rect 0 0 47 14)(font "Arial" (font_size 8)))
		(text "warning" (rect 92 59 139 73)(font "Arial" (font_size 8)))
		(line (pt 160 64)(pt 144 64)(line_width 1))
	)
	(drawing
		(rectangle (rect 16 16 144 112)(line_width 1))
	)
)
(symbol
	(rect 1336 2488 1496 2616)
	(text "error_judgement" (rect 5 0 98 14)(font "Arial" (font_size 8)))
	(text "inst16" (rect 8 112 37 124)(font "Arial" ))
	(port
		(pt 0 32)
		(input)
		(text "The_clock" (rect 0 0 57 14)(font "Arial" (font_size 8)))
		(text "The_clock" (rect 21 27 78 41)(font "Arial" (font_size 8)))
		(line (pt 0 32)(pt 16 32)(line_width 1))
	)
	(port
		(pt 0 48)
		(input)
		(text "lvds_in" (rect 0 0 40 14)(font "Arial" (font_size 8)))
		(text "lvds_in" (rect 21 43 61 57)(font "Arial" (font_size 8)))
		(line (pt 0 48)(pt 16 48)(line_width 1))
	)
	(port
		(pt 0 64)
		(input)
		(text "enable" (rect 0 0 37 14)(font "Arial" (font_size 8)))
		(text "enable" (rect 21 59 58 73)(font "Arial" (font_size 8)))
		(line (pt 0 64)(pt 16 64)(line_width 1))
	)
	(port
		(pt 0 80)
		(input)
		(text "live_rising" (rect 0 0 56 14)(font "Arial" (font_size 8)))
		(text "live_rising" (rect 21 75 77 89)(font "Arial" (font_size 8)))
		(line (pt 0 80)(pt 16 80)(line_width 1))
	)
	(port
		(pt 160 32)
		(output)
		(text "error" (rect 0 0 28 14)(font "Arial" (font_size 8)))
		(text "error" (rect 111 27 139 41)(font "Arial" (font_size 8)))
		(line (pt 160 32)(pt 144 32)(line_width 1))
	)
	(port
		(pt 160 48)
		(output)
		(text "stop" (rect 0 0 24 14)(font "Arial" (font_size 8)))
		(text "stop" (rect 115 43 139 57)(font "Arial" (font_size 8)))
		(line (pt 160 48)(pt 144 48)(line_width 1))
	)
	(port
		(pt 160 64)
		(output)
		(text "warning" (rect 0 0 47 14)(font "Arial" (font_size 8)))
		(text "warning" (rect 92 59 139 73)(font "Arial" (font_size 8)))
		(line (pt 160 64)(pt 144 64)(line_width 1))
	)
	(drawing
		(rectangle (rect 16 16 144 112)(line_width 1))
	)
)
(symbol
	(rect 2056 568 2112 632)
	(text "or_bus16" (rect 39 6 55 68)(font "Arial" (font_size 10))(vertical))
	(text "inst21" (rect 4 8 16 37)(font "Arial" )(vertical))
	(port
		(pt 24 0)
		(input)
		(text "data[15..0][0..0]" (rect 0 0 88 14)(font "Arial" (font_size 8)))
		(text "data[15..0][0..0]" (rect 85 4 99 92)(font "Arial" (font_size 8))(vertical)(invisible))
		(line (pt 24 0)(pt 24 20)(line_width 3))
	)
	(port
		(pt 24 64)
		(output)
		(text "result" (rect 0 0 31 14)(font "Arial" (font_size 8)))
		(text "result" (rect 35 61 49 92)(font "Arial" (font_size 8))(vertical)(invisible))
		(line (pt 24 64)(pt 24 51)(line_width 1))
	)
	(drawing
		(text "16" (rect 24 4 36 15)(font "Arial" )(vertical))
		(line (pt 36 16)(pt 36 28)(line_width 1))
		(line (pt 12 16)(pt 12 28)(line_width 1))
		(line (pt 20 4)(pt 28 12)(line_width 1))
		(arc (pt 12 16)(pt 36 16)(rect 3 -21 45 21)(line_width 1))
		(arc (pt 24 52)(pt 36 28)(rect -24 -2 36 58)(line_width 1))
		(arc (pt 12 28)(pt 24 52)(rect 12 -2 72 58)(line_width 1))
	)
	(rotate270)
)
(symbol
	(rect 2160 640 2256 784)
	(text "bus16_rise_fall" (rect 0 5 14 92)(font "Arial" (font_size 8))(vertical))
	(text "inst22" (rect 80 8 92 37)(font "Arial" )(vertical))
	(port
		(pt 32 0)
		(input)
		(text "The_clock" (rect 0 0 57 14)(font "Arial" (font_size 8)))
		(text "The_clock" (rect 27 21 41 78)(font "Arial" (font_size 8))(vertical))
		(line (pt 32 0)(pt 32 16)(line_width 1))
	)
	(port
		(pt 48 0)
		(input)
		(text "in[15..0]" (rect 0 0 44 14)(font "Arial" (font_size 8)))
		(text "in[15..0]" (rect 43 21 57 65)(font "Arial" (font_size 8))(vertical))
		(line (pt 48 0)(pt 48 16)(line_width 3))
	)
	(port
		(pt 32 144)
		(output)
		(text "rising" (rect 0 0 30 14)(font "Arial" (font_size 8)))
		(text "rising" (rect 27 93 41 123)(font "Arial" (font_size 8))(vertical))
		(line (pt 32 144)(pt 32 128)(line_width 1))
	)
	(port
		(pt 48 144)
		(output)
		(text "falling" (rect 0 0 33 14)(font "Arial" (font_size 8)))
		(text "falling" (rect 43 90 57 123)(font "Arial" (font_size 8))(vertical))
		(line (pt 48 144)(pt 48 128)(line_width 1))
	)
	(drawing
		(rectangle (rect 16 16 80 128)(line_width 1))
	)
	(flipy_rotate90)
)
(symbol
	(rect 2296 1064 2440 1144)
	(text "dff_one" (rect 52 1 100 17)(font "Arial" (font_size 10)))
	(text "inst23" (rect 8 64 37 76)(font "Arial" ))
	(port
		(pt 0 32)
		(input)
		(text "data" (rect 0 0 24 14)(font "Arial" (font_size 8)))
		(text "data" (rect 20 26 44 40)(font "Arial" (font_size 8)))
		(line (pt 0 32)(pt 16 32)(line_width 1))
	)
	(port
		(pt 0 48)
		(input)
		(text "clock" (rect 0 0 29 14)(font "Arial" (font_size 8)))
		(text "clock" (rect 26 42 55 56)(font "Arial" (font_size 8)))
		(line (pt 0 48)(pt 16 48)(line_width 1))
	)
	(port
		(pt 144 48)
		(output)
		(text "q" (rect 0 0 7 14)(font "Arial" (font_size 8)))
		(text "q" (rect 119 42 126 56)(font "Arial" (font_size 8)))
		(line (pt 144 48)(pt 128 48)(line_width 1))
	)
	(drawing
		(text "DFF" (rect 109 17 131 29)(font "Arial" ))
		(line (pt 16 16)(pt 128 16)(line_width 1))
		(line (pt 128 16)(pt 128 64)(line_width 1))
		(line (pt 128 64)(pt 16 64)(line_width 1))
		(line (pt 16 64)(pt 16 16)(line_width 1))
		(line (pt 16 42)(pt 22 48)(line_width 1))
		(line (pt 22 48)(pt 16 54)(line_width 1))
	)
)
(symbol
	(rect 2032 656 2112 800)
	(text "dff_one" (rect 63 52 79 100)(font "Arial" (font_size 10))(vertical))
	(text "inst24" (rect 4 8 16 37)(font "Arial" )(vertical))
	(port
		(pt 48 0)
		(input)
		(text "data" (rect 0 0 24 14)(font "Arial" (font_size 8)))
		(text "data" (rect 40 20 54 44)(font "Arial" (font_size 8))(vertical))
		(line (pt 48 0)(pt 48 16)(line_width 1))
	)
	(port
		(pt 32 0)
		(input)
		(text "clock" (rect 0 0 29 14)(font "Arial" (font_size 8)))
		(text "clock" (rect 24 26 38 55)(font "Arial" (font_size 8))(vertical))
		(line (pt 32 0)(pt 32 16)(line_width 1))
	)
	(port
		(pt 32 144)
		(output)
		(text "q" (rect 0 0 7 14)(font "Arial" (font_size 8)))
		(text "q" (rect 24 119 38 126)(font "Arial" (font_size 8))(vertical))
		(line (pt 32 144)(pt 32 128)(line_width 1))
	)
	(drawing
		(text "DFF" (rect 51 109 63 131)(font "Arial" )(vertical))
		(line (pt 64 16)(pt 64 128)(line_width 1))
		(line (pt 64 128)(pt 16 128)(line_width 1))
		(line (pt 16 128)(pt 16 16)(line_width 1))
		(line (pt 16 16)(pt 64 16)(line_width 1))
		(line (pt 38 16)(pt 32 22)(line_width 1))
		(line (pt 32 22)(pt 26 16)(line_width 1))
	)
	(rotate270)
)
(symbol
	(rect 2112 952 2240 1064)
	(text "error_coder" (rect 0 5 12 60)(font "Arial" )(vertical))
	(text "inst20" (rect 112 8 124 37)(font "Arial" )(vertical))
	(port
		(pt 32 0)
		(input)
		(text "clk" (rect 0 0 14 12)(font "Arial" ))
		(text "clk" (rect 27 21 39 35)(font "Arial" )(vertical))
		(line (pt 32 0)(pt 32 16)(line_width 1))
	)
	(port
		(pt 48 0)
		(input)
		(text "reset" (rect 0 0 24 12)(font "Arial" ))
		(text "reset" (rect 43 21 55 45)(font "Arial" )(vertical))
		(line (pt 48 0)(pt 48 16)(line_width 1))
	)
	(port
		(pt 64 0)
		(input)
		(text "err" (rect 0 0 12 12)(font "Arial" ))
		(text "err" (rect 59 21 71 33)(font "Arial" )(vertical))
		(line (pt 64 0)(pt 64 16)(line_width 1))
	)
	(port
		(pt 80 0)
		(input)
		(text "stop_rising" (rect 0 0 53 12)(font "Arial" ))
		(text "stop_rising" (rect 75 21 87 74)(font "Arial" )(vertical))
		(line (pt 80 0)(pt 80 16)(line_width 1))
	)
	(port
		(pt 96 0)
		(input)
		(text "stop_falling" (rect 0 0 56 12)(font "Arial" ))
		(text "stop_falling" (rect 91 21 103 77)(font "Arial" )(vertical))
		(line (pt 96 0)(pt 96 16)(line_width 1))
	)
	(port
		(pt 32 112)
		(output)
		(text "q" (rect 0 0 5 12)(font "Arial" ))
		(text "q" (rect 27 86 39 91)(font "Arial" )(vertical))
		(line (pt 32 112)(pt 32 96)(line_width 1))
	)
	(parameter
		"ERROR_LENGTH"
		"3"
		""
		(type "PARAMETER_SIGNED_DEC")	)
	(drawing
		(rectangle (rect 16 16 112 96)(line_width 1))
	)
	(flipy_rotate90)
	(annotation_block (parameter)(rect 2256 1008 2448 1040))
)
(symbol
	(rect 2016 824 2112 920)
	(text "reset_FFFFclk" (rect 5 0 78 12)(font "Arial" ))
	(text "inst26" (rect 8 80 37 92)(font "Arial" ))
	(port
		(pt 0 32)
		(input)
		(text "clk" (rect 0 0 14 12)(font "Arial" ))
		(text "clk" (rect 21 27 35 39)(font "Arial" ))
		(line (pt 0 32)(pt 16 32)(line_width 1))
	)
	(port
		(pt 0 48)
		(input)
		(text "reset" (rect 0 0 24 12)(font "Arial" ))
		(text "reset" (rect 21 43 45 55)(font "Arial" ))
		(line (pt 0 48)(pt 16 48)(line_width 1))
	)
	(port
		(pt 96 32)
		(output)
		(text "q" (rect 0 0 5 12)(font "Arial" ))
		(text "q" (rect 70 27 75 39)(font "Arial" ))
		(line (pt 96 32)(pt 80 32)(line_width 1))
	)
	(drawing
		(rectangle (rect 16 16 80 80)(line_width 1))
	)
)
(connector
	(text "rx[15..0]" (rect 1082 504 1123 516)(font "Arial" ))
	(pt 1072 520)
	(pt 1136 520)
	(bus)
)
(connector
	(pt 832 536)
	(pt 928 536)
	(bus)
)
(connector
	(pt 872 520)
	(pt 928 520)
)
(connector
	(pt 872 304)
	(pt 872 520)
)
(connector
	(pt 832 304)
	(pt 872 304)
)
(connector
	(pt 1136 376)
	(pt 1136 520)
	(bus)
)
(connector
	(pt 1560 504)
	(pt 1560 648)
	(bus)
)
(connector
	(pt 1560 648)
	(pt 1560 792)
	(bus)
)
(connector
	(pt 1560 792)
	(pt 1560 936)
	(bus)
)
(connector
	(pt 1560 936)
	(pt 1560 1080)
	(bus)
)
(connector
	(pt 1560 1080)
	(pt 1560 1224)
	(bus)
)
(connector
	(pt 1560 1224)
	(pt 1560 1368)
	(bus)
)
(connector
	(pt 1560 1368)
	(pt 1560 1512)
	(bus)
)
(connector
	(pt 1560 1512)
	(pt 1560 1656)
	(bus)
)
(connector
	(pt 1560 1656)
	(pt 1560 1800)
	(bus)
)
(connector
	(pt 1560 1800)
	(pt 1560 1944)
	(bus)
)
(connector
	(pt 1560 1944)
	(pt 1560 2088)
	(bus)
)
(connector
	(pt 1560 2088)
	(pt 1560 2232)
	(bus)
)
(connector
	(pt 1560 2232)
	(pt 1560 2376)
	(bus)
)
(connector
	(pt 1560 2376)
	(pt 1560 2520)
	(bus)
)
(connector
	(pt 1296 304)
	(pt 1296 360)
)
(connector
	(pt 1296 360)
	(pt 1296 504)
)
(connector
	(pt 1296 504)
	(pt 1296 648)
)
(connector
	(pt 1136 520)
	(pt 1136 664)
	(bus)
)
(connector
	(pt 1296 648)
	(pt 1296 792)
)
(connector
	(pt 1136 664)
	(pt 1136 808)
	(bus)
)
(connector
	(pt 1296 792)
	(pt 1296 936)
)
(connector
	(pt 1136 808)
	(pt 1136 952)
	(bus)
)
(connector
	(pt 1296 936)
	(pt 1296 1080)
)
(connector
	(pt 1136 952)
	(pt 1136 1096)
	(bus)
)
(connector
	(pt 1296 1080)
	(pt 1296 1224)
)
(connector
	(pt 1136 1096)
	(pt 1136 1240)
	(bus)
)
(connector
	(pt 1296 1224)
	(pt 1296 1368)
)
(connector
	(pt 1136 1240)
	(pt 1136 1384)
	(bus)
)
(connector
	(pt 1296 1368)
	(pt 1296 1512)
)
(connector
	(pt 1136 1384)
	(pt 1136 1528)
	(bus)
)
(connector
	(pt 1296 1512)
	(pt 1296 1656)
)
(connector
	(pt 1136 1528)
	(pt 1136 1672)
	(bus)
)
(connector
	(pt 1296 1656)
	(pt 1296 1800)
)
(connector
	(pt 1136 1672)
	(pt 1136 1816)
	(bus)
)
(connector
	(pt 1296 1800)
	(pt 1296 1944)
)
(connector
	(pt 1136 1816)
	(pt 1136 1960)
	(bus)
)
(connector
	(pt 1296 1944)
	(pt 1296 2088)
)
(connector
	(pt 1136 1960)
	(pt 1136 2104)
	(bus)
)
(connector
	(pt 1296 2088)
	(pt 1296 2232)
)
(connector
	(pt 1136 2104)
	(pt 1136 2248)
	(bus)
)
(connector
	(pt 1296 2232)
	(pt 1296 2376)
)
(connector
	(pt 1296 2376)
	(pt 1296 2520)
)
(connector
	(pt 1136 2248)
	(pt 1136 2392)
	(bus)
)
(connector
	(pt 1136 2392)
	(pt 1136 2536)
	(bus)
)
(connector
	(pt 1296 360)
	(pt 1336 360)
)
(connector
	(text "rx[0]" (rect 1146 360 1168 372)(font "Arial" ))
	(pt 1136 376)
	(pt 1336 376)
)
(connector
	(pt 1296 504)
	(pt 1336 504)
)
(connector
	(text "rx[1]" (rect 1146 504 1168 516)(font "Arial" ))
	(pt 1136 520)
	(pt 1336 520)
)
(connector
	(pt 1296 648)
	(pt 1336 648)
)
(connector
	(text "rx[2]" (rect 1146 648 1168 660)(font "Arial" ))
	(pt 1136 664)
	(pt 1336 664)
)
(connector
	(pt 1296 792)
	(pt 1336 792)
)
(connector
	(text "rx[3]" (rect 1146 792 1168 804)(font "Arial" ))
	(pt 1136 808)
	(pt 1336 808)
)
(connector
	(pt 1296 936)
	(pt 1336 936)
)
(connector
	(text "rx[4]" (rect 1146 936 1168 948)(font "Arial" ))
	(pt 1136 952)
	(pt 1336 952)
)
(connector
	(pt 1296 1080)
	(pt 1336 1080)
)
(connector
	(text "rx[5]" (rect 1146 1080 1168 1092)(font "Arial" ))
	(pt 1136 1096)
	(pt 1336 1096)
)
(connector
	(pt 1296 1224)
	(pt 1336 1224)
)
(connector
	(text "rx[6]" (rect 1146 1224 1168 1236)(font "Arial" ))
	(pt 1136 1240)
	(pt 1336 1240)
)
(connector
	(pt 1296 1368)
	(pt 1336 1368)
)
(connector
	(text "rx[7]" (rect 1146 1368 1168 1380)(font "Arial" ))
	(pt 1136 1384)
	(pt 1336 1384)
)
(connector
	(pt 1296 1512)
	(pt 1336 1512)
)
(connector
	(text "rx[8]" (rect 1146 1512 1168 1524)(font "Arial" ))
	(pt 1136 1528)
	(pt 1336 1528)
)
(connector
	(pt 1296 1656)
	(pt 1336 1656)
)
(connector
	(text "rx[9]" (rect 1146 1656 1168 1668)(font "Arial" ))
	(pt 1136 1672)
	(pt 1336 1672)
)
(connector
	(pt 1296 1800)
	(pt 1336 1800)
)
(connector
	(text "rx[10]" (rect 1146 1800 1174 1812)(font "Arial" ))
	(pt 1136 1816)
	(pt 1336 1816)
)
(connector
	(pt 1296 1944)
	(pt 1336 1944)
)
(connector
	(text "rx[11]" (rect 1146 1944 1174 1956)(font "Arial" ))
	(pt 1136 1960)
	(pt 1336 1960)
)
(connector
	(pt 1296 2088)
	(pt 1336 2088)
)
(connector
	(text "rx[12]" (rect 1146 2088 1174 2100)(font "Arial" ))
	(pt 1136 2104)
	(pt 1336 2104)
)
(connector
	(pt 1296 2232)
	(pt 1336 2232)
)
(connector
	(text "rx[13]" (rect 1146 2232 1174 2244)(font "Arial" ))
	(pt 1136 2248)
	(pt 1336 2248)
)
(connector
	(pt 1296 2376)
	(pt 1336 2376)
)
(connector
	(text "rx[14]" (rect 1146 2376 1174 2388)(font "Arial" ))
	(pt 1136 2392)
	(pt 1336 2392)
)
(connector
	(pt 1296 2520)
	(pt 1336 2520)
)
(connector
	(text "rx[15]" (rect 1146 2520 1174 2532)(font "Arial" ))
	(pt 1136 2536)
	(pt 1336 2536)
)
(connector
	(pt 1192 392)
	(pt 1192 448)
	(bus)
)
(connector
	(pt 1280 2568)
	(pt 1336 2568)
)
(connector
	(text "en[15]" (rect 1202 2536 1232 2548)(font "Arial" ))
	(pt 1336 2552)
	(pt 1192 2552)
)
(connector
	(pt 1192 2408)
	(pt 1192 2552)
	(bus)
)
(connector
	(text "en[14]" (rect 1202 2392 1232 2404)(font "Arial" ))
	(pt 1336 2408)
	(pt 1192 2408)
)
(connector
	(pt 1336 2424)
	(pt 1280 2424)
)
(connector
	(pt 1280 2424)
	(pt 1280 2568)
)
(connector
	(pt 1192 2264)
	(pt 1192 2408)
	(bus)
)
(connector
	(pt 1336 2280)
	(pt 1280 2280)
)
(connector
	(pt 1280 2280)
	(pt 1280 2424)
)
(connector
	(text "en[13]" (rect 1202 2248 1232 2260)(font "Arial" ))
	(pt 1336 2264)
	(pt 1192 2264)
)
(connector
	(pt 1192 2120)
	(pt 1192 2264)
	(bus)
)
(connector
	(text "en[12]" (rect 1202 2104 1232 2116)(font "Arial" ))
	(pt 1336 2120)
	(pt 1192 2120)
)
(connector
	(pt 1336 2136)
	(pt 1280 2136)
)
(connector
	(pt 1280 2136)
	(pt 1280 2280)
)
(connector
	(pt 1192 1976)
	(pt 1192 2120)
	(bus)
)
(connector
	(pt 1336 1992)
	(pt 1280 1992)
)
(connector
	(pt 1280 1992)
	(pt 1280 2136)
)
(connector
	(text "en[11]" (rect 1202 1960 1232 1972)(font "Arial" ))
	(pt 1336 1976)
	(pt 1192 1976)
)
(connector
	(pt 1192 1832)
	(pt 1192 1976)
	(bus)
)
(connector
	(text "en[10]" (rect 1202 1816 1232 1828)(font "Arial" ))
	(pt 1336 1832)
	(pt 1192 1832)
)
(connector
	(pt 1336 1848)
	(pt 1280 1848)
)
(connector
	(pt 1280 1848)
	(pt 1280 1992)
)
(connector
	(pt 1192 1688)
	(pt 1192 1832)
	(bus)
)
(connector
	(pt 1336 1704)
	(pt 1280 1704)
)
(connector
	(pt 1280 1704)
	(pt 1280 1848)
)
(connector
	(text "en[9]" (rect 1202 1672 1226 1684)(font "Arial" ))
	(pt 1336 1688)
	(pt 1192 1688)
)
(connector
	(pt 1192 1544)
	(pt 1192 1688)
	(bus)
)
(connector
	(pt 1336 1560)
	(pt 1280 1560)
)
(connector
	(pt 1280 1560)
	(pt 1280 1704)
)
(connector
	(text "en[8]" (rect 1202 1528 1226 1540)(font "Arial" ))
	(pt 1336 1544)
	(pt 1192 1544)
)
(connector
	(pt 1192 1400)
	(pt 1192 1544)
	(bus)
)
(connector
	(pt 1336 1416)
	(pt 1280 1416)
)
(connector
	(pt 1280 1416)
	(pt 1280 1560)
)
(connector
	(text "en[7]" (rect 1202 1384 1226 1396)(font "Arial" ))
	(pt 1336 1400)
	(pt 1192 1400)
)
(connector
	(pt 1192 1256)
	(pt 1192 1400)
	(bus)
)
(connector
	(text "en[6]" (rect 1202 1240 1226 1252)(font "Arial" ))
	(pt 1336 1256)
	(pt 1192 1256)
)
(connector
	(pt 1336 1272)
	(pt 1280 1272)
)
(connector
	(pt 1280 1272)
	(pt 1280 1416)
)
(connector
	(pt 1336 1128)
	(pt 1280 1128)
)
(connector
	(pt 1280 1128)
	(pt 1280 1272)
)
(connector
	(pt 1192 1112)
	(pt 1192 1256)
	(bus)
)
(connector
	(text "en[5]" (rect 1202 1096 1226 1108)(font "Arial" ))
	(pt 1336 1112)
	(pt 1192 1112)
)
(connector
	(pt 1192 968)
	(pt 1192 1112)
	(bus)
)
(connector
	(pt 1336 984)
	(pt 1280 984)
)
(connector
	(pt 1280 984)
	(pt 1280 1128)
)
(connector
	(text "en[4]" (rect 1202 952 1226 964)(font "Arial" ))
	(pt 1336 968)
	(pt 1192 968)
)
(connector
	(pt 1192 824)
	(pt 1192 968)
	(bus)
)
(connector
	(text "en[3]" (rect 1202 808 1226 820)(font "Arial" ))
	(pt 1336 824)
	(pt 1192 824)
)
(connector
	(pt 1336 840)
	(pt 1280 840)
)
(connector
	(pt 1280 840)
	(pt 1280 984)
)
(connector
	(pt 1336 696)
	(pt 1280 696)
)
(connector
	(pt 1280 696)
	(pt 1280 840)
)
(connector
	(pt 1192 680)
	(pt 1192 824)
	(bus)
)
(connector
	(text "en[2]" (rect 1202 664 1226 676)(font "Arial" ))
	(pt 1336 680)
	(pt 1192 680)
)
(connector
	(pt 1336 552)
	(pt 1280 552)
)
(connector
	(pt 1280 552)
	(pt 1280 696)
)
(connector
	(pt 1192 448)
	(pt 1192 536)
	(bus)
)
(connector
	(pt 1192 536)
	(pt 1192 680)
	(bus)
)
(connector
	(text "en[1]" (rect 1202 520 1226 532)(font "Arial" ))
	(pt 1336 536)
	(pt 1192 536)
)
(connector
	(pt 1336 408)
	(pt 1280 408)
)
(connector
	(pt 1280 408)
	(pt 1280 552)
)
(connector
	(text "en[0]" (rect 1202 376 1226 388)(font "Arial" ))
	(pt 1336 392)
	(pt 1192 392)
)
(connector
	(text "en[15..0]" (rect 1146 432 1189 444)(font "Arial" ))
	(pt 832 448)
	(pt 1192 448)
	(bus)
)
(connector
	(text "w[15]" (rect 1506 2536 1531 2548)(font "Arial" ))
	(pt 1496 2552)
	(pt 1728 2552)
)
(connector
	(text "s[15]" (rect 1506 2520 1530 2532)(font "Arial" ))
	(pt 1496 2536)
	(pt 1648 2536)
)
(connector
	(text "e[15]" (rect 1506 2504 1530 2516)(font "Arial" ))
	(pt 1496 2520)
	(pt 1560 2520)
)
(connector
	(pt 1648 2392)
	(pt 1648 2536)
	(bus)
)
(connector
	(pt 1728 2408)
	(pt 1728 2552)
	(bus)
)
(connector
	(pt 1648 2248)
	(pt 1648 2392)
	(bus)
)
(connector
	(pt 1728 2264)
	(pt 1728 2408)
	(bus)
)
(connector
	(pt 1648 2104)
	(pt 1648 2248)
	(bus)
)
(connector
	(pt 1728 2120)
	(pt 1728 2264)
	(bus)
)
(connector
	(pt 1648 1960)
	(pt 1648 2104)
	(bus)
)
(connector
	(pt 1728 1976)
	(pt 1728 2120)
	(bus)
)
(connector
	(pt 1648 1816)
	(pt 1648 1960)
	(bus)
)
(connector
	(pt 1728 1832)
	(pt 1728 1976)
	(bus)
)
(connector
	(pt 1648 1672)
	(pt 1648 1816)
	(bus)
)
(connector
	(pt 1728 1688)
	(pt 1728 1832)
	(bus)
)
(connector
	(pt 1648 1528)
	(pt 1648 1672)
	(bus)
)
(connector
	(pt 1728 1544)
	(pt 1728 1688)
	(bus)
)
(connector
	(pt 1648 1384)
	(pt 1648 1528)
	(bus)
)
(connector
	(pt 1728 1400)
	(pt 1728 1544)
	(bus)
)
(connector
	(pt 1648 1240)
	(pt 1648 1384)
	(bus)
)
(connector
	(pt 1728 1256)
	(pt 1728 1400)
	(bus)
)
(connector
	(pt 1648 1096)
	(pt 1648 1240)
	(bus)
)
(connector
	(pt 1728 1112)
	(pt 1728 1256)
	(bus)
)
(connector
	(pt 1648 952)
	(pt 1648 1096)
	(bus)
)
(connector
	(pt 1728 968)
	(pt 1728 1112)
	(bus)
)
(connector
	(pt 1648 808)
	(pt 1648 952)
	(bus)
)
(connector
	(pt 1728 824)
	(pt 1728 968)
	(bus)
)
(connector
	(pt 1648 664)
	(pt 1648 808)
	(bus)
)
(connector
	(pt 1728 680)
	(pt 1728 824)
	(bus)
)
(connector
	(pt 1648 520)
	(pt 1648 664)
	(bus)
)
(connector
	(pt 1728 392)
	(pt 1728 536)
	(bus)
)
(connector
	(pt 1560 360)
	(pt 1560 504)
	(bus)
)
(connector
	(pt 1648 376)
	(pt 1648 456)
	(bus)
)
(connector
	(pt 1648 456)
	(pt 1648 520)
	(bus)
)
(connector
	(pt 1728 536)
	(pt 1728 552)
	(bus)
)
(connector
	(pt 1728 552)
	(pt 1728 680)
	(bus)
)
(connector
	(pt 1848 344)
	(pt 1904 344)
)
(connector
	(text "e[15..0]" (rect 1754 344 1805 360)(font "Arial" (font_size 10)))
	(pt 1560 360)
	(pt 1904 360)
	(bus)
)
(connector
	(pt 1848 440)
	(pt 1904 440)
)
(connector
	(text "s[15..0]" (rect 1754 440 1805 456)(font "Arial" (font_size 10)))
	(pt 1648 456)
	(pt 1904 456)
	(bus)
)
(connector
	(text "w[15..0]" (rect 1754 536 1808 552)(font "Arial" (font_size 10)))
	(pt 1728 552)
	(pt 1904 552)
	(bus)
)
(connector
	(pt 1848 536)
	(pt 1904 536)
)
(connector
	(text "e[0]" (rect 1506 344 1524 356)(font "Arial" ))
	(pt 1496 360)
	(pt 1560 360)
)
(connector
	(text "s[0]" (rect 1506 360 1524 372)(font "Arial" ))
	(pt 1496 376)
	(pt 1648 376)
)
(connector
	(text "w[0]" (rect 1506 376 1526 388)(font "Arial" ))
	(pt 1496 392)
	(pt 1728 392)
)
(connector
	(text "e[1]" (rect 1506 488 1524 500)(font "Arial" ))
	(pt 1560 504)
	(pt 1496 504)
)
(connector
	(text "s[1]" (rect 1506 504 1524 516)(font "Arial" ))
	(pt 1496 520)
	(pt 1648 520)
)
(connector
	(text "w[1]" (rect 1506 520 1526 532)(font "Arial" ))
	(pt 1496 536)
	(pt 1728 536)
)
(connector
	(text "e[2]" (rect 1506 632 1524 644)(font "Arial" ))
	(pt 1496 648)
	(pt 1560 648)
)
(connector
	(text "s[2]" (rect 1506 648 1524 660)(font "Arial" ))
	(pt 1496 664)
	(pt 1648 664)
)
(connector
	(text "w[2]" (rect 1506 664 1526 676)(font "Arial" ))
	(pt 1496 680)
	(pt 1728 680)
)
(connector
	(text "e[3]" (rect 1506 776 1524 788)(font "Arial" ))
	(pt 1496 792)
	(pt 1560 792)
)
(connector
	(text "s[3]" (rect 1506 792 1524 804)(font "Arial" ))
	(pt 1496 808)
	(pt 1648 808)
)
(connector
	(text "w[3]" (rect 1506 808 1526 820)(font "Arial" ))
	(pt 1496 824)
	(pt 1728 824)
)
(connector
	(text "e[4]" (rect 1506 920 1524 932)(font "Arial" ))
	(pt 1496 936)
	(pt 1560 936)
)
(connector
	(text "s[4]" (rect 1506 936 1524 948)(font "Arial" ))
	(pt 1496 952)
	(pt 1648 952)
)
(connector
	(text "w[4]" (rect 1506 952 1526 964)(font "Arial" ))
	(pt 1496 968)
	(pt 1728 968)
)
(connector
	(text "e[5]" (rect 1506 1064 1524 1076)(font "Arial" ))
	(pt 1496 1080)
	(pt 1560 1080)
)
(connector
	(text "s[5]" (rect 1506 1080 1524 1092)(font "Arial" ))
	(pt 1496 1096)
	(pt 1648 1096)
)
(connector
	(text "w[5]" (rect 1506 1096 1526 1108)(font "Arial" ))
	(pt 1496 1112)
	(pt 1728 1112)
)
(connector
	(text "e[6]" (rect 1506 1208 1524 1220)(font "Arial" ))
	(pt 1496 1224)
	(pt 1560 1224)
)
(connector
	(text "s[6]" (rect 1506 1224 1524 1236)(font "Arial" ))
	(pt 1496 1240)
	(pt 1648 1240)
)
(connector
	(text "w[6]" (rect 1506 1240 1526 1252)(font "Arial" ))
	(pt 1496 1256)
	(pt 1728 1256)
)
(connector
	(text "e[7]" (rect 1506 1352 1524 1364)(font "Arial" ))
	(pt 1496 1368)
	(pt 1560 1368)
)
(connector
	(text "s[7]" (rect 1506 1368 1524 1380)(font "Arial" ))
	(pt 1496 1384)
	(pt 1648 1384)
)
(connector
	(text "w[7]" (rect 1506 1384 1526 1396)(font "Arial" ))
	(pt 1496 1400)
	(pt 1728 1400)
)
(connector
	(text "e[8]" (rect 1506 1496 1524 1508)(font "Arial" ))
	(pt 1496 1512)
	(pt 1560 1512)
)
(connector
	(text "s[8]" (rect 1506 1512 1524 1524)(font "Arial" ))
	(pt 1496 1528)
	(pt 1648 1528)
)
(connector
	(text "w[8]" (rect 1506 1528 1526 1540)(font "Arial" ))
	(pt 1496 1544)
	(pt 1728 1544)
)
(connector
	(text "e[9]" (rect 1506 1640 1524 1652)(font "Arial" ))
	(pt 1496 1656)
	(pt 1560 1656)
)
(connector
	(text "s[9]" (rect 1506 1656 1524 1668)(font "Arial" ))
	(pt 1496 1672)
	(pt 1648 1672)
)
(connector
	(text "w[9]" (rect 1506 1672 1526 1684)(font "Arial" ))
	(pt 1496 1688)
	(pt 1728 1688)
)
(connector
	(text "e[10]" (rect 1506 1784 1530 1796)(font "Arial" ))
	(pt 1496 1800)
	(pt 1560 1800)
)
(connector
	(text "s[10]" (rect 1506 1800 1530 1812)(font "Arial" ))
	(pt 1496 1816)
	(pt 1648 1816)
)
(connector
	(text "w[10]" (rect 1506 1816 1531 1828)(font "Arial" ))
	(pt 1496 1832)
	(pt 1728 1832)
)
(connector
	(text "e[11]" (rect 1506 1928 1530 1940)(font "Arial" ))
	(pt 1496 1944)
	(pt 1560 1944)
)
(connector
	(text "s[11]" (rect 1506 1944 1530 1956)(font "Arial" ))
	(pt 1496 1960)
	(pt 1648 1960)
)
(connector
	(text "w[11]" (rect 1506 1960 1531 1972)(font "Arial" ))
	(pt 1496 1976)
	(pt 1728 1976)
)
(connector
	(text "e[12]" (rect 1506 2072 1530 2084)(font "Arial" ))
	(pt 1496 2088)
	(pt 1560 2088)
)
(connector
	(text "w[12]" (rect 1506 2104 1531 2116)(font "Arial" ))
	(pt 1496 2120)
	(pt 1728 2120)
)
(connector
	(text "e[13]" (rect 1506 2216 1530 2228)(font "Arial" ))
	(pt 1496 2232)
	(pt 1560 2232)
)
(connector
	(text "s[13]" (rect 1506 2232 1530 2244)(font "Arial" ))
	(pt 1496 2248)
	(pt 1648 2248)
)
(connector
	(text "w[13]" (rect 1506 2248 1531 2260)(font "Arial" ))
	(pt 1496 2264)
	(pt 1728 2264)
)
(connector
	(text "e[14]" (rect 1506 2360 1530 2372)(font "Arial" ))
	(pt 1496 2376)
	(pt 1560 2376)
)
(connector
	(text "s[14]" (rect 1506 2376 1530 2388)(font "Arial" ))
	(pt 1496 2392)
	(pt 1648 2392)
)
(connector
	(text "w[14]" (rect 1506 2392 1531 2404)(font "Arial" ))
	(pt 1496 2408)
	(pt 1728 2408)
)
(connector
	(pt 2048 536)
	(pt 2456 536)
	(bus)
)
(connector
	(pt 2208 440)
	(pt 2208 640)
	(bus)
)
(connector
	(pt 2048 440)
	(pt 2208 440)
	(bus)
)
(connector
	(pt 2208 440)
	(pt 2456 440)
	(bus)
)
(connector
	(pt 832 336)
	(pt 1280 336)
)
(connector
	(pt 1280 336)
	(pt 1280 408)
)
(connector
	(pt 1280 280)
	(pt 1280 336)
)
(connector
	(pt 2080 344)
	(pt 2080 568)
	(bus)
)
(connector
	(pt 2048 344)
	(pt 2080 344)
	(bus)
)
(connector
	(pt 2080 344)
	(pt 2456 344)
	(bus)
)
(connector
	(pt 2080 632)
	(pt 2080 656)
)
(connector
	(pt 2064 656)
	(pt 2064 640)
)
(connector
	(text "s[12]" (rect 1506 2088 1530 2100)(font "Arial" ))
	(pt 1496 2104)
	(pt 1648 2104)
)
(connector
	(pt 1280 280)
	(pt 1864 280)
)
(connector
	(pt 2064 800)
	(pt 2064 816)
)
(connector
	(pt 1848 640)
	(pt 2064 640)
)
(connector
	(pt 872 304)
	(pt 1296 304)
)
(connector
	(pt 1864 872)
	(pt 2016 872)
)
(connector
	(pt 1864 280)
	(pt 1864 872)
)
(connector
	(pt 2016 856)
	(pt 1848 856)
)
(connector
	(pt 2192 304)
	(pt 2192 640)
)
(connector
	(pt 1848 936)
	(pt 2144 936)
)
(connector
	(pt 2144 1096)
	(pt 2296 1096)
)
(connector
	(pt 2440 1112)
	(pt 2472 1112)
)
(connector
	(pt 1848 1112)
	(pt 2296 1112)
)
(connector
	(pt 2064 816)
	(pt 2176 816)
)
(connector
	(pt 2112 856)
	(pt 2160 856)
)
(connector
	(pt 2144 936)
	(pt 2144 952)
)
(connector
	(pt 2160 856)
	(pt 2160 952)
)
(connector
	(pt 2176 816)
	(pt 2176 952)
)
(connector
	(pt 2192 784)
	(pt 2192 952)
)
(connector
	(pt 2208 784)
	(pt 2208 952)
)
(connector
	(pt 1296 304)
	(pt 1848 304)
)
(connector
	(pt 1848 304)
	(pt 2192 304)
)
(connector
	(pt 1848 304)
	(pt 1848 344)
)
(connector
	(pt 1848 344)
	(pt 1848 440)
)
(connector
	(pt 1848 440)
	(pt 1848 536)
)
(connector
	(pt 1848 536)
	(pt 1848 640)
)
(connector
	(pt 1848 640)
	(pt 1848 856)
)
(connector
	(pt 1848 856)
	(pt 1848 936)
)
(connector
	(pt 1848 936)
	(pt 1848 1112)
)
(connector
	(pt 2144 1064)
	(pt 2144 1096)
)
(junction (pt 872 304))
(junction (pt 1136 520))
(junction (pt 1136 664))
(junction (pt 1136 808))
(junction (pt 1136 952))
(junction (pt 1136 1096))
(junction (pt 1136 1240))
(junction (pt 1136 1384))
(junction (pt 1136 1528))
(junction (pt 1136 1672))
(junction (pt 1136 1816))
(junction (pt 1136 1960))
(junction (pt 1136 2104))
(junction (pt 1136 2248))
(junction (pt 1136 2392))
(junction (pt 1560 504))
(junction (pt 1560 648))
(junction (pt 1560 792))
(junction (pt 1560 936))
(junction (pt 1560 1080))
(junction (pt 1560 1224))
(junction (pt 1560 1368))
(junction (pt 1560 1512))
(junction (pt 1560 1656))
(junction (pt 1560 1800))
(junction (pt 1560 1944))
(junction (pt 1560 2088))
(junction (pt 1560 2232))
(junction (pt 1560 2376))
(junction (pt 1296 360))
(junction (pt 1296 504))
(junction (pt 1296 648))
(junction (pt 1296 792))
(junction (pt 1296 936))
(junction (pt 1296 1080))
(junction (pt 1296 1224))
(junction (pt 1296 1368))
(junction (pt 1296 1512))
(junction (pt 1296 1656))
(junction (pt 1296 1800))
(junction (pt 1296 1944))
(junction (pt 1296 2088))
(junction (pt 1296 2232))
(junction (pt 1296 2376))
(junction (pt 1192 448))
(junction (pt 1192 2408))
(junction (pt 1280 2424))
(junction (pt 1192 2264))
(junction (pt 1280 2280))
(junction (pt 1192 2120))
(junction (pt 1280 2136))
(junction (pt 1192 1976))
(junction (pt 1280 1992))
(junction (pt 1192 1832))
(junction (pt 1280 1848))
(junction (pt 1192 1688))
(junction (pt 1280 1704))
(junction (pt 1192 1544))
(junction (pt 1280 1560))
(junction (pt 1192 1400))
(junction (pt 1280 1416))
(junction (pt 1192 1256))
(junction (pt 1280 1272))
(junction (pt 1280 1128))
(junction (pt 1192 1112))
(junction (pt 1192 968))
(junction (pt 1280 984))
(junction (pt 1192 824))
(junction (pt 1280 840))
(junction (pt 1280 696))
(junction (pt 1192 680))
(junction (pt 1280 552))
(junction (pt 1192 536))
(junction (pt 1280 408))
(junction (pt 1648 2392))
(junction (pt 1728 2408))
(junction (pt 1648 2248))
(junction (pt 1728 2264))
(junction (pt 1648 2104))
(junction (pt 1728 2120))
(junction (pt 1648 1960))
(junction (pt 1728 1976))
(junction (pt 1648 1816))
(junction (pt 1728 1832))
(junction (pt 1648 1672))
(junction (pt 1728 1688))
(junction (pt 1648 1528))
(junction (pt 1728 1544))
(junction (pt 1648 1384))
(junction (pt 1728 1400))
(junction (pt 1648 1240))
(junction (pt 1728 1256))
(junction (pt 1648 1096))
(junction (pt 1728 1112))
(junction (pt 1648 952))
(junction (pt 1728 968))
(junction (pt 1648 808))
(junction (pt 1728 824))
(junction (pt 1648 664))
(junction (pt 1728 680))
(junction (pt 1648 520))
(junction (pt 1728 536))
(junction (pt 1560 360))
(junction (pt 1648 456))
(junction (pt 1728 552))
(junction (pt 1296 304))
(junction (pt 1848 440))
(junction (pt 1848 344))
(junction (pt 2080 344))
(junction (pt 1848 536))
(junction (pt 2208 440))
(junction (pt 1280 336))
(junction (pt 1848 640))
(junction (pt 1848 856))
(junction (pt 1848 304))
(junction (pt 1848 936))
(text "Error Manager" (rect 664 208 1026 262)(font "Times New Roman" (color 0 0 255)(font_size 36)(bold_italic)))
(text "C. Lin 2022.01.11" (rect 632 2584 909 2620)(font "Times New Roman" (color 0 0 255)(font_size 24)(bold_italic)))
(text "From 2022 Jan 12 (v0.01.00 or above), \"warning\" is omitted." (rect 2288 504 2696 520)(font "Arial" (color 0 0 0)(font_size 10)(italic)))
(rectangle (rect 600 168 2672 2640)(color 0 0 255)(line_width 5))
